Data Extraction - All Studies Gene List Overlap
…
TRUE (or a colored tile) means that gene appears in that list.

This gives a quick visual summary of overlap and differences across studies.

Build the Gene-by-List Logical Matrix

The table below has one row per gene and one column per extracted list. Each cell is TRUE if that gene appears in that list and FALSE otherwise.

Warning: package 'yaml' was built under R version 4.5.2

Warning: package 'dplyr' was built under R version 4.5.2

Warning: package 'ggplot2' was built under R version 4.5.2

# A tibble: 524 × 11
   gene   timson_2024_cyto_high_…¹ timson_2024_cyto_low…² timson_2024_mito_hig…³
   <chr>  <lgl>                    <lgl>                  <lgl>                 
 1 KEAP1  FALSE                    TRUE                   FALSE                 
 2 LIPT1  FALSE                    TRUE                   FALSE                 
 3 NDUFA1 FALSE                    TRUE                   FALSE                 
 4 NDUFA2 FALSE                    TRUE                   FALSE                 
 5 NDUFS1 FALSE                    TRUE                   FALSE                 
 6 PAICS  FALSE                    TRUE                   FALSE                 
 7 RRM1   FALSE                    TRUE                   FALSE                 
 8 SEPHS2 FALSE                    TRUE                   FALSE                 
 9 ALDOA  FALSE                    TRUE                   FALSE                 
10 ASNA1  FALSE                    TRUE                   FALSE                 
# ℹ 514 more rows
# ℹ abbreviated names: ¹​timson_2024_cyto_high_score,
#   ²​timson_2024_cyto_low_score, ³​timson_2024_mito_high_score
# ℹ 7 more variables: timson_2024_mito_low_score <lgl>,
#   yang_2024_cys_starv_0_high_score <lgl>,
#   yang_2024_cys_starv_0_low_score <lgl>,
#   yang_2024_cys_starv_1_high_score <lgl>, …
…
Study Hit Counts per Gene

A gene appearing in more than one study provides stronger cross-study evidence for a role in ferroptosis regulation. The table below counts, for each gene, how many distinct studies include it in at least one extracted list. A gene is counted once per study regardless of how many lists within that study contain it. List IDs follow the {author}_{year}_... convention, so the study is taken as the first two underscore-delimited tokens.

# A tibble: 524 × 2
   gene    n_studies
   <chr>       <int>
 1 KEAP1           3
 2 RRM1            3
 3 ALDOA           2
 4 ASNA1           2
 5 CDIPT           2
 6 CNEP1R1         2
 7 COQ3            2
 8 COX5B           2
 9 FXN             2
10 GLRX5           2
# ℹ 514 more rows
…
Gene List Hit Counts per Gene

The table below counts how many individual gene lists (across all studies and conditions) contain each gene. Unlike the section above, no deduplication by study is applied: a gene appearing in four lists from the same study contributes 4 to its count. This is useful when lists within a study are not independent — for example, when the same screen is thresholded at multiple conditions — but the totals should be interpreted with that caveat in mind.

# A tibble: 524 × 2
   gene   n_lists
   <chr>    <int>
 1 KEAP1        4
 2 LIPT1        4
 3 NDUFA1       4
 4 NDUFA2       4
 5 NDUFS1       4
 6 PAICS        4
 7 RRM1         4
 8 SEPHS2       4
 9 ALDOA        3
10 ASNA1        3
# ℹ 514 more rows

The table below summarises how many genes appear in exactly 1, 2, 3, … individual lists.

#| label: list-hit-counts-summary
list_hit_counts |>
    count(n_lists, name = "n_genes") |>
    arrange(desc(n_lists))

Gene–Study–List Reference Table

The table below is a long-format reference: one row per (gene, gene list) combination, limited to genes that are present in at least one list. The study column is derived from the first two tokens of the list ID (e.g. timson_2024). Use this table to look up, for any gene of interest, which studies and which specific lists it was identified in.

# A tibble: 743 × 3
   gene     study       gene_list                   
   <chr>    <chr>       <chr>                       
 1 AASDHPPT timson_2024 timson_2024_mito_low_score  
 2 ABCB7    timson_2024 timson_2024_cyto_low_score  
 3 ABCB7    timson_2024 timson_2024_mito_low_score  
 4 ABCC1    zhang_2022  zhang_2022_crispr_high_score
 5 ABCC6    zhang_2022  zhang_2022_crispr_high_score
 6 ABCE1    timson_2024 timson_2024_cyto_low_score  
 7 ABCE1    timson_2024 timson_2024_mito_low_score  
 8 ABCF1    timson_2024 timson_2024_cyto_low_score  
 9 ABCF1    timson_2024 timson_2024_mito_low_score  
10 ABHD11   timson_2024 timson_2024_mito_low_score  
# ℹ 733 more rows
…
